{
    "nav.home": "Startseite",
    "nav.community": "Community",
    "nav.support": "Hilfe",
    "nav.store": "Store",
    "nav.blog": "Blog",
    "nav.signin": "Einloggen",
    "accountNav.info": "Kontoinformationen",
    "accountNav.api": "API Einstellungen",
    "accountNav.external": "Externe Konten",
    "accountNav.apps": "Applikationen",
    "accountNav.sessions": "Aktive Sitzungen",
    "accountNav.password": "Passwort ändern",
    "accountNav.logout": "Ausloggen",
    "adminNav.headline": "Administration",
    "adminNav.home": "Start",
    "adminNav.users": "Benutzer",
    "adminNav.bans": "Banregeln",
    "adminNav.ipManagement": "IP Verwaltung",
    "adminNav.sessions": "Sitzungen",
    "adminNav.apiKeys": "API Schlüssel",
    "adminNav.apiLog": "API Log",
    "adminNav.loginKeys": "Login Schlüssel",
    "footer.followGigadrive": "Folge Gigadrive",
    "footer.legal": "Rechtliches",
    "footer.legal.contactInfo": "Kontaktinformationen",
    "footer.legal.tos": "Nutzungsbedingungen",
    "footer.legal.privacy": "Datenschutzerklärung",
    "footer.legal.disclaimer": "Haftungsausschluss",
    "footer.store": "Store",
    "footer.store.gcoins": "GCoins",
    "footer.store.software": "Software",
    "footer.store.games": "Spiele",
    "footer.store.services": "Dienstleistungen",
    "footer.products": "Produkte",
    "footer.about": "Über Gigadrive",
    "footer.about.history": "Geschichte",
    "footer.about.jobs": "Karriere",
    "footer.nightmode.enable": "Nachtmodus aktivieren",
    "footer.nightmode.disable": "Nachtmodus deaktivieren",
    "footer.contact": "Kontakt",
    "footer.status": "Serverstatus",
    "pageTitle.login": "Gigadrive Login",
    "login.error.alreadyLoggedIn": "Du bist bereits eingeloggt.",
    "login.error.twitchNoAccountFound": "Es gibt kein Gigadrive Konto das mit diesem Twitch Konto verknüpft ist.",
    "login.error.discordNoAccountFound": "Es gibt kein Gigadrive Konto das mit diesem Discord Konto verknüpft ist.",
    "errorOccurred": "Ein Fehler ist aufgetreten.",
    "login.error.externalServiceMissing": "Es fehlt der folgende externe Service: {0}<br/><br/>Um dich hier einzuloggen, musst du dein Konto mit diesem Service verknüpfen. <a href='/account/external-accounts' target='_blank'>Klicke hier für mehr Informationen</a>.",
    "login.success": "Erfolgreich eingeloggt.",
    "login.error.couldNotCreateLoginKey": "Es konnte kein Loginschlüssel erstellt werden.",
    "login.error.banned": "Dein Konto wurde gesperrt.",
    "login.error.banned.reason": "Dein Konto wurde gesperrt.<br/><br/>Grund: {0}",
    "login.error.emailNotActivated": "Dein Konto wurde noch nicht bestätigt. Bitte bestätige deine Email Adresse bevor du dich einloggst.",
    "login.error.wrongPassword": "Falsches Passwort.",
    "login.error.wrongPassword.outdatedAccount": "Falsches Passwort.<br/><br/><b>Es scheint, dass dein Konto vor dem 15.04.2018 erstellt wurde. Dies bedeutet, dass dein Passwort veraltet ist. Um den Zugriff auf dein Konto wiederherzustellen, <a href='/forgotpw'>setze bitte dein Passwort zurück</a>.</b>",
    "login.error.invalidEmail": "Es konnte kein Konto mit dieser Email Adresse gefunden werden.",
    "login.error.fillAllFields": "Bitte fülle beide Felder aus.",
    "login.field.email": "Email Adresse",
    "login.field.password": "Passwort",
    "api.v2.scope.identify": "Dein Nutzername und deine Account ID",
    "api.v2.scope.email": "Deine Email Adresse",
    "api.v2.scope.location": "Deine Adresse",
    "api.v2.scope.gcoins": "Deine GCoins",
    "api.v2.scope.externalAccounts": "Deine verknüpften Konten",
    "login.v2.authInfo": "Bitte beachte, dass wenn du dich hier einloggst, {0} Zugriff auf die folgenden Daten deines Kontos bekommt:",
    "login.signInButton": "Einloggen",
    "login.withTwitch": "Mit Twitch einloggen",
    "login.withDiscord": "Mit Discord einloggen",
    "login.createAccount": "Gigadrive Konto erstellen",
    "login.forgotPassword": "Passwort vergessen?",
    "login.processing": "Du wirst nun eingeloggt..",
    "register.error.alreadyRegistered": "Du bist bereits registriert.",
    "register.error.nameInUse": "Dieser Nutzername wird bereits verwendet.",
    "register.error.mailInUse": "Diese Email Adresse wird bereits verwendet.",
    "register.error.nameMustBeAlphaNumeric": "Der Nutzername muss alphanumerisch sein (nur Buchstaben und Zahlen!)",
    "register.error.nameTooShort": "Der Nutzername ist zu kurz (min. 3 Zeichen)",
    "register.error.nameTooLong": "Der Nutzername ist zu lang (max. 16 Zeichen)",
    "register.error.passwordTooShort": "Das Passwort ist zu kurz (min. 3 Zeichen)",
    "register.error.passwordTooLong": "Das Passwort ist zu lang (max. 50 Zeichen)",
    "register.error.passwordsDontMatch": "Die Passwörter stimmen nicht überein",
    "register.error.invalidMail": "Dies ist keine gültige Email Adresse",
    "register.error.mailsDontMatch": "Die Email Adressen stimmen nicht überein",
    "register.error.captchaFail": "Das Captcha ist fehlgeschlagen, bitte versuche es erneut",
    "register.error.fillAllFields": "Bitte fülle alle Felder aus!",
    "register.headline": "Erstelle dein Gigadrive Konto",
    "register.field.username": "Benutzername",
    "register.field.email": "Email Adresse",
    "register.field.email2": "Email Adresse wdh.",
    "register.field.password": "Passwort",
    "register.field.password2": "Passwort wdh.",
    "register.button.submit": "Absenden",
    "register.button.reset": "Abbrechen",
    "register.agreementInfo": "In dem du auf Absenden klickst, bestätigst du unsere <a href=\"/legal/terms-of-service\" target=\"_blank\">Nutzungsbedingungen</a> und <a href=\"/legal/privacy-policy\" target=\"_blank\">Datenschutzerklärung</a> gelesen und akzeptiert zu haben.",
    "authorize.headline": "Applikationszugriff",
    "authorize.thisAppWill": "Diese Applikation <b>bekommt Zugriff auf</b>:",
    "authorize.website": "Webseite besuchen",
    "authorize.privacy": "Datenschutzerklärung ansehen",
    "authorize.button.authorize": "Zugriff erlauben",
    "authorize.button.cancel": "Abbrechen",
    "authorize.infoAlert": "<b>Du kannst dein Gigadrive Konto verwenden um dich in andere Webseiten und Services einzuloggen.</b><br/>Wenn du auf <em>Zugriff erlauben</em> klickst, kannst du {0} benutzen ohne dein Gigadrive Passwort zu teilen.",
    "badbrowser.title": "Du verwendest einen veralterten Browser.",
    "badbrowser.headline": "Browser Unterstützungsinformation",
    "badbrowser.jsAndCookies": "JavaScript und Cookies müssen aktiviert sein um diese Webseite zu erreichen.",
    "badbrowser.browserInfoText": "Um alle Funktionen dieser Webseite verwenden zu können, empfehlen wir einen der folgenden Browser zu verwenden:",
    "forgotpw.error.mailNotSent": "Die Email konnte nicht versandt werden.",
    "forgotpw.error.accountNotFound": "Dieses Konto konnte nicht gefunden werden.",
    "forgotpw.headline": "Passwort vergessen?",
    "forgotpw.field.email": "Email Adresse",
    "forgotpw.button.submit": "Absenden",
    "forgotpw.button.reset": "Abbrechen",
    "jobs.noJobOpenings": "Derzeit sind keine Stellen verfügbar.",
    "account.api.deprecated": "Wie am 11.07.2018 angekündigt, veröffentlichen wir bald v3 unserer Login API, welche v2, v1 und die API Keys veraltert. Falls du derzeit v2 oder v1 verwendest, stelle dich bitte auf Änderungen in der Zukunft sein und wechsle so bald wie möglich zu v3.<br/><b><a href=\"https://blog.gigadrivegroup.com/2018/07/login-api-v3/\" target=\"_blank\">Mehr Informationen zu v3 können hier gefunden</a></b>.",
    "account.api.keyCreated": "Dein API Schlüssel wurde erstellt. Stelle sicher, dass er privat bleibt!",
    "account.api.error.alreadyHaveAKey": "Du hast bereits einen API Schlüssel.",
    "account.api.headline": "API Einstellungen",
    "account.api.noKey": "Du hast derzeit keinen API Schlüssel.",
    "account.api.clickToGenerate": "Klicke hier um einen neuen Schlüssel zu generieren",
    "account.api.yourKey": "Dein API Schlüssel:",
    "account.api.accessAt": "Du kannst bei {0} auf die API zugreifen.",
    "account.api.documentationLink": "Dokumentation: (folgt bald)",
    "account.apps.authorized.headline": "Authorisierte Applikationen",
    "account.apps.authorized.noApps": "Du hast derzeit keinen Applikationen den Zugriff auf dein Konto gewährt.",
    "account.apps.authorized.removeModal.title": "\"{0}\" entfernen",
    "account.apps.authorized.removeModal.text": "Bist du sicher, dass du diese Applikation entfernen möchtest? Das wird den Zugriff der Applikation auf dein Konto entfernen und du wirst nicht mehr in der Lage sein, sie mit deinem Gigadrive Konto zu verwenden.",
    "account.apps.authorized.removeModal.button.close": "Schließen",
    "account.apps.authorized.removeModal.button.remove": "Entfernen",
    "account.apps.authorized.accessTo": "Diese Applikation hat Zugriff auf",
    "account.apps.authorized.date": "Authorisiert",
    "account.apps.authorized.removeButton": "Entfernen",
    "account.apps.authorized.unauthorized": "{0} wurde entfernt.",
    "account.apps.created.headline": "Erstellte Applikationen",
    "account.apps.created.createButton": "Applikation erstellen",
    "account.apps.created.noApps": "Du hast noch keine Applikationen erstellt.",
    "account.apps.created.date": "Erstellt",
    "account.apps.created.manageButton": "Verwalten",
    "account.changepw.changed": "Dein Passwort wurde geändert.",
    "account.changepw.oldPasswordWrong": "Dein altes Passwort stimmt nicht überein.",
    "account.changepw.newDontMatch": "Die neuen Passwörter stimmen nicht überein.",
    "account.changepw.headline": "Ändere dein Passwort",
    "account.changepw.field.oldPassword": "Dein aktuelles Passwort",
    "account.changepw.field.newPassword": "Dein neues Passwort",
    "account.changepw.field.newPassword2": "Gib dein neues Passwort erneut ein",
    "account.changepw.changeButton": "Ändern",
    "account.createapp.created": "Die Applikation wurde erstellt!",
    "account.createapp.nameTaken": "Dieser Name ist nicht mehr verfügbar.",
    "account.createapp.invalidPrivacyURL": "Bitte gib eine gültige URL für die Datenschutzerklärung an.",
    "account.createapp.privacyTooLong": "Die URL der Datenschutzerklärung kann nicht länger als 1000 Zeichen sein.",
    "account.createapp.descriptionTooLong": "Die Beschreibung kann nicht länger als 200 Zeichen sein.",
    "account.createapp.invalidWebsite": "Bitte gib eine gültige URL für die Webseite an.",
    "account.createapp.nameTooLong": "Der Name kann nicht länger als 60 Zeichen sein.",
    "account.createapp.nameTooShort": "Der Name muss mindestens 3 Zeichen lang sein.",
    "account.createapp.noWebsite": "Bitte gib eine Webseite an.",
    "account.createapp.noName": "Bitte gib einen Namen an.",
    "account.createapp.headline": "Eine Applikation erstellen",
    "account.createapp.field.name": "Name",
    "account.createapp.field.description": "Beschreibung",
    "account.createapp.field.website": "Webseite",
    "account.createapp.field.privacy": "Datenschutzerklärung",
    "account.createapp.createButton": "Erstellen",
    "account.info.headline": "Kontoinformationen",
    "account.edit.saved": "Die Änderungen wurden gespeichert.",
    "account.info.firstName": "Vorname",
    "account.info.lastName": "Nachname",
    "account.info.street": "Straße",
    "account.info.zip": "Postleitzahl",
    "account.info.city": "Stadt",
    "account.info.country": "Land",
    "account.edit.save": "Änderungen speichern",
    "account.edit.country.notSpecified": "nicht angegeben",
    "account.external.discordLinked": "Dein Discord Konto wurde erfolgreich verknüpft.",
    "account.external.twitchLinked": "Dein Twitch Konto wurde erfolgreich verknüpft.",
    "account.external.minecraftLinked": "Dein Minecraft Konto wurde erfolgreich verknüpft.",
    "account.external.emptyFields": "Bitte fülle alle Felder aus.",
    "account.external.userDoesNotExist": "Dieser Benutzername konnte nicht gefunden werden.",
    "account.external.alreadyLinked": "Du hast bereits ein Minecraft Konto verknüpft.",
    "account.external.accountAlreadyLinked": "Dieses Konto ist bereits mit einem anderen Gigadrive Konto verknüpft.",
    "account.external.unlinked": "Die Verknüpfung wurde erfolgreich aufgehoben.",
    "account.external.invalidEmail": "Bitte gib eine gültige Email Adresse an.",
    "account.external.unlinkDiscord.headline": "Verknüpfung mit Discord aufheben",
    "account.external.unlinkDiscord.text": "Bist du sicher, dass du die Verknüpfung mit Discord aufheben möchtest?",
    "account.external.unlinkButton": "Verknüpfung aufheben",
    "account.external.cancelButton": "Abbrechnen",
    "account.external.discord.dateLinked": "Verknüpfungsdatum",
    "account.external.connectButton": "Verbinden",
    "account.external.linkButton": "Verknüpfen",
    "account.external.discord.reAuthenticate": "Ein Fehler ist mit deiner Discord Verknüpfung aufgetreten. Bitte verbinde dich erneut.",
    "account.external.unlinkMinecraft.headline": "Verknüpfung mit Minecraft aufheben",
    "account.external.unlinkMinecraft.text": "Bist du sicher, dass du die Verknüpfung mit Minecraft aufheben möchtest?",
    "account.external.minecraft.username": "Benutzername",
    "account.external.minecraft.dateLinked": "Verknüpfungsdatum",
    "account.external.minecraft.classicAuth": "Klassische Authentifizierung",
    "account.external.minecraft.mcauth.name": "Dein Minecraft Benutzername",
    "account.external.minecraft.classic.securityInfo": "<b>Beachte:</b> Weder deine Minecraft Email Adresse, noch dein Passwort werden auf unseren Servern gespeichert. Diese Daten werden lediglich verwendet um dich mit Mojangs Servern zu verbinden.",
    "account.external.minecraft.mcauth.email": "Mojang Account Email",
    "account.external.minecraft.mcauth.password": "Mojang Account Passwort",
    "account.manageapp.updated": "The application wurde aktualisiert!",
    "account.manageapp.field.secret": "Geheimer Schlüssel",
    "account.manageapp.secretSecurityInfo": "Verwende dies um dich mit der API zu verbinden. <b>Teile diesen Schlüssel mit niemanden, behalte ihn so geheim wie dein Passwort!!</b>",
    "account.manageapp.updateButton": "Aktualisieren",
    "account.info.username": "Benutzername",
    "account.info.username.change": "ändern",
    "account.info.email": "Email Adresse",
    "account.info.registerDate": "Registrierungsdatum",
    "account.info.gcoins": "GCoins",
    "account.info.undefined": "Undefiniert",
    "account.info.avatar.changed": "Dein Profilbild wurde geändert!<br/>Es kann bis zu 5 Minuten dauern bis es sich überall aktualisiert hat.",
    "account.info.avatar.sameSHA": "Du verwendest dieses Bild bereits.",
    "account.info.avatar.fileTooLarge": "Die hochgeladene Datei ist zu groß. (Max. 1 MB)",
    "account.info.avatar.invalidExtension": "Ungültiger Dateityp: .{0}!<br/>Erlaubte Typen sind: .jpg, .gif, .png",
    "account.info.avatar.removed": "Dein Profilbild wurde entfernt.",
    "account.info.avatar.headline": "Profilbild",
    "account.info.avatar.fileInfo": "Erlaubte Typen: .jpg, .png, .gif | Maximale Größe: 1 MB<br/>Optimale Auflösung: 300x300 pixels",
    "account.info.avatar.submit": "Submit",
    "account.info.avatar.delete": "Aktuelles Bild entfernen",
    "account.resetpw.invalidCombination": "Ungültiger Schlüssel.",
    "account.sessions.killed": "Die Sitzung wurde gelöscht.",
    "account.sessions.headline": "Derzeit aktive Sitzungen",
    "account.sessions.browserAndPlatform": "Browser & Plattform",
    "account.sessions.location": "Ort",
    "account.sessions.lastAccess": "Letzter Zugriff",
    "account.sessions.current": "aktuelle Sitzung",
    "account.sessions.logOut": "Ausloggen",
    "account.sessions.securityInfo.1": "Bist du irgendwo eingeloggt wo du es nicht sein solltest?",
    "account.sessions.securityInfo.2": "Ein sichereres Passwort zu wählen hilft dein Konto zu sichern.",
    "account.verifyEmail.verified": "Dein Account wurde bestätigt. Du kannst dich nun einloggen.",
    "admin.apiLog.key": "Schlüssel",
    "admin.apiLog.ip": "IP",
    "admin.apiLog.message": "Nachricht",
    "admin.apiLog.api": "API",
    "admin.apiLog.time": "Zeit",
    "admin.users.search.placeholder": "Gib eine Suchanfrage ein",
    "admin.users.search.title": "Suche",
    "admin.users.headline": "Benutzer",
    "admin.users.emailActivated": "Email aktiviert",
    "admin.users.emailActivated.yes": "Ja",
    "admin.users.emailActivated.no": "Nein",
    "admin.users.manageButton": "Verwalten",
    "banned.vpn.title": "Du verwendest ein VPN",
    "banned.vpn.headline": "Es scheint, dass du ein VPN verwendest.",
    "banned.vpn.text": "Um Zugriff auf diese Webseite zu bekommen, deaktiviere bitte alle IP-ändernde Software so wie VPNs und Proxys.",
    "error.401.headline": "HTTP Error 401/Nicht authorisiert",
    "error.402.headline": "HTTP Error 402/Zahlung benötigt",
    "error.403.headline": "HTTP Error 403/Verboten",
    "error.404.headline": "HTTP Error 404/Seite nicht gefunden",
    "error.451.headline": "HTTP Error 451/Nicht verfügbar aus rechtlichen Gründen",
    "legal.contact.headline": "Kontaktinformationen",
    "legal.contact.address": "Adresse",
    "legal.contact.address.onDemand": "auf Anfrage",
    "legal.contact.email": "Kontaktemail",
    "legal.contact.validity.headline": "Gültigkeit von Informationen",
    "legal.contact.validity.text": "Dieses Impressum ist gültig für mehrere Webseiten. Klicken Sie <a href=\"/legal/domains\">hier</a> für eine Liste.",
    "legal.domains.headline": "Websites in Besitz oder unter Verwaltung von Gigadrive",
    "legal.domains.subdomains": "inklusive Subdomains",
    "store.closed": "Der Gigadrive Store ist derzeit geschlossen.",
    "store.buyGCoins": "GCoins kaufen",
    "store.yourGCoinBalance": "Deine GCoins",
    "support.article.lastUpdated": "Letzte Aktualisierung",
    "support.breadcrumb.home": "Start",
    "support.category.headline": "Kategorie: \"{0}\"",
    "support.search.headline": "Suche: \"{0}\"",
    "support.home.headline": "Womit brauchst du Hilfe?",
    "support.statusInfoAlert": "Ist etwas offline? <a href=\"https://status.gigadrivegroup.com\" target=\"_blank\" class=\"alert-link\">Besuche zuerst unsere Statusseite!</a>",
    "support.viewAll": "Alle ansehen",
    "avitool.headline": "AviTool",
    "avitool.what": "Was is das für eine Seite?",
    "avitool.overlay": "Ein Overlay hinzufügen",
    "avitool.overlay.gayPride": "",
    "avitool.overlay.july4th": "Amerikanische Flagge (4. Juli)",
    "avitool.overlay.germanFlag": "Deutsche Flagge (3. Oktober)",
    "avitool.error.invalidOverlay": "Bitte wähle ein gültiges Overlay.",
    "avitool.error.invalidExtension": "Ungültiger Dateityp.",
    "avitool.error.invalidFile": "Bitte lade eine Datei hoch.",
    "avitool.field.overlay": "Overlay",
    "avitool.field.opacity": "Overlay Durchsichtigkeit in %",
    "avitool.fileInfo": "Erlaubte Dateitypen: {0} | Maximale Größe: 1 MB",
    "avitool.submit": "Absenden",
    "home.noPermission": "Du darfst diese Seite nicht betrachten.",
    "home.nightMode.on": "Du verwendest nun den Nachtmodus.",
    "home.nightMode.off": "Du verwendest nun nicht mehr den Nachtmodus.",
    "home.slideshow.visitWebsite": "Webseite besuchen",
    "home.slideshow.kostenloswlan.description": "Eine deutsche Liste für kostenlose, öffentliche WLAN Hotspots",
    "home.slideshow.previous": "Zurück",
    "home.slideshow.next": "Weiter",
    "api.v3.scope.user:info": "Benutzername und Profilbild",
    "api.v3.scope.user:email": "Email Adresse",
    "api.v3.scope.user:address": "Echter Name und Adresse",
    "api.v3.scope.user:external": "Externe Konten",
    "mail.verifyEmail.title": "Gigadrive: Bestätige deine Email Adresse",
    "mail.verifyEmail.headline.1": "Beende deine Gigadrive Registrierung!",
    "mail.verifyEmail.hello": "Hallo, {0}!",
    "mail.verifyEmail.text": "Um die Erstellung deines Gigadrive Kontos zu beenden, klicke bitte auf den folgenden Button und bestätige deine Email Adresse.",
    "mail.verifyEmail.callToAction": "Bestätigen",
    "mail.verifyEmail.headline.2": "Du hast dich nicht auf gigadrivegroup.com registriert?",
    "mail.verifyEmail.dontWorry": "Keine Sorge. Ignoriere diese Email einfach und das Konto mit dieser Email Adresse wird in 2 Wochen entfernt."
}
